…
```r
ds_command_wide
```

```
## # A tibble: 46 × 21
##     Code  Guam `NH Oki` `Oki MEU` `3rd MLG` `NH Yoko`  Rota  Napl   Sig
##    <int> <int>    <int>     <int>     <int>     <int> <int> <int> <int>
## 1    401     1       10        NA        NA        NA    NA    NA    NA
## 2    402    NA       18        NA        NA        NA     2     6     1
## 3    403    NA        5        NA        NA        NA    NA    NA    NA
## 4    404    NA        7        NA        NA        NA    NA    NA    NA
## 5    405    NA        8        NA        NA        NA    NA    NA    NA
## 6    406    NA       19        NA        NA        NA    NA    NA    NA
## 7    407    NA       16        NA        NA        NA    NA    NA    NA
## 8    408    NA       NA        NA        NA        NA    NA    NA    NA
## 9    409    NA       12        NA        NA        NA    NA    NA    NA
## 10   410    NA       NA        NA        NA        NA    NA    NA    NA
## # ... with 36 more rows, and 12 more variables: NMCP <int>, Jax <int>,
## #   Gitmo <int>, NHCL <int>, `2nd MLG` <int>, `2nd MEU` <int>,
## #   CBIRF <int>, NMCSD <int>, `NH 29P` <int>, `NH Pend` <int>, `1st
## #   MLG` <int>, `1st MEU` <int>
```

```r
ds_officer_roster
```

```
## # A tibble: 62 × 3
##    officer_id officer_tag officer_name_last
##         <int>       <chr>             <chr>
## 1         401        xvxe           Abraham
## 2         402        kobl            Bailey
## 3         403        x0qi              Carr
## 4         404        pd7n          Davidson
## 5         405        87cl           Ellison
## 6         406        m8w6           Forsyth
## 7         407        wnaf            Glover
## 8         408        as5q            Harris
## 9         409        pb8x              Ince
## 10        410        5t8r             Jones
## # ... with 52 more rows
```

```r
ds_officer_wide
```

```
## # A tibble: 46 × 21
##     Code  Guam `NH Oki` `Oki MEU` `3rd MLG` `NH Yoko`  Rota  Napl   Sig
##    <int> <int>    <int>     <int>     <int>     <int> <int> <int> <int>
## 1    401    NA       NA        NA        NA        NA    NA    NA    NA
## 2    402     4       NA        NA        NA        NA     2     1     3
## 3    403    NA        5        NA        NA        NA    NA    NA    NA
## 4    404     9       NA        NA        NA         5     6     7     8
## 5    405    NA       NA        NA        NA        NA    NA    NA    NA
## 6    406    NA       NA        NA        NA        NA     2     1     3
## 7    407    NA        8        NA        NA         4     5     6     7
## 8    408    NA       NA        NA        NA        NA    NA    NA    NA
## 9    409    NA       NA        NA        NA        NA     3     4     5
## 10   410    NA       NA        NA        NA        NA    NA    NA    NA
## # ... with 36 more rows, and 12 more variables: NMCP <int>, Jax <int>,
## #   Gitmo <int>, NHCL <int>, `2nd MLG` <int>, `2nd MEU` <int>,
## #   CBIRF <int>, NMCSD <int>, `NH 29P` <int>, `NH Pend` <int>, `1st
## #   MLG` <int>, `1st MEU` <int>
```
…
