…
```
## # A tibble: 1,298 x 6
##    response_index transparent satisfaction favoritism
##             <int>       <int>        <int>      <int>
##  1              1           2            4          5
##  2              2           3            5         NA
##  3              3          NA           NA         NA
##  4              4           1            1          1
##  5              5          NA           NA         NA
##  6              6          NA           NA         NA
##  7              7           5            5          5
##  8              8           1            3          2
##  9              9          NA           NA         NA
## 10             10           5            5          5
## # ... with 1,288 more rows, and 2 more variables:
## #   assignment_current_rank <chr>, missing_item_count <int>
```
…
